﻿Instance,Contract No,Customer,Start date,End date,Last Action,Last Action_Cancel,Last Action_Renew
52,1235474,True corporation,3/24/2021,3/3/2027,,,
51,,test,3/23/2021,3/18/2025,,,
50,,test,3/11/2021,3/16/2023,,,
